Matched ratio for district 1: 0.5285620485883126
Matched ratio for district 2: 0.5674962292609351
Matched ratio for district 3: 0.5063649222065064
Matched ratio for district 4: 0.5369928400954654
Matched ratio for district 5: 0.7526845637583892
Matched ratio for district 6: 0.7090692124105012
Matched ratio for district 7: 0.769538077403246
Matched ratio for district 8: 0.6862580464595578
Matched ratio for district 9: 0.6328257191201354
Matched ratio for district 10: 0.6569282136894825
Matched ratio for district 11: 0.5738522954091816
Matched ratio for district 12: 0.5571428571428572
Matched ratio for district 13: 0.7264017033356991
Matched ratio for district 14: 0.6030349013657056
Matched ratio for district 15: 0.6301229508196722
Matched ratio for district 16: 0.5957446808510638
Matched ratio for district 17: 0.38443396226415094
Matched ratio for district 18: 0.653997378768021
Matched ratio for district 19: 0.48731884057971014
Matched ratio for district 20: 0.5122324159021406
Matched ratio for district 21: 0.5168141592920354
Matched ratio for district 22: 0.6710963455149501
Matched ratio for district 23: 0.3442622950819672
